{
    "url": "http://webarchive.ton/",                      
    "name": "The Open Network Web Archive",          
    "iconUrl": "http://webarchive.ton/icon.png",    
    "termsOfUseUrl": "<terms-of-use-url>",
    "privacyPolicyUrl": "<privacy-policy-url>"
}